Digital Systems/Adder Subtractor Unit/simulation/qsim/lab4.msim.vcd
$comment
	File created using the following command:
		vcd file lab4.msim.vcd -direction
$end
$date
	Fri Oct 30 04:54:57 2020
$end
$version
	ModelSim Version 10.1d
$end
$timescale
	1ps
$end
$scope module C_vlg_vec_tst $end
$var reg 4 ! S [3:0] $end
$var wire 1 " L [3] $end
$var wire 1 # L [2] $end
$var wire 1 $ L [1] $end
$var wire 1 % L [0] $end
$var wire 1 & sampler $end
$scope module i1 $end
$var wire 1 ' gnd $end
$var wire 1 ( vcc $end
$var wire 1 ) unknown $end
$var tri1 1 * devclrn $end
$var tri1 1 + devpor $end
$var tri1 1 , devoe $end
$var wire 1 - L~0_combout $end
$var wire 1 . L~1_combout $end
$var wire 1 / L~2_combout $end
$var wire 1 0 L~3_combout $end
$var wire 1 1 S~combout [3] $end
$var wire 1 2 S~combout [2] $end
$var wire 1 3 S~combout [1] $end
$var wire 1 4 S~combout [0] $end
$upscope $end
$upscope $end
$enddefinitions $end
#0
$dumpvars
b0 !
1%
0$
1#
0"
x&
0'
1(
x)
1*
1+
1,
1-
0.
1/
00
04
03
02
01
$end
#50000
b1 !
14
0&
0/
0-
0#
0%
#100000
b11 !
b10 !
04
13
1&
#150000
b11 !
14
0&
10
1-
1"
1%
#200000
b111 !
b101 !
b100 !
04
03
12
1&
00
1/
0"
1#
#250000
b101 !
14
0&
0/
1.
0#
1$
#300000
b111 !
b110 !
04
13
1&
0.
0-
0$
0%
#350000
b111 !
14
0&
#400000
b1111 !
b1011 !
b1001 !
b1000 !
04
03
02
11
1&
1/
1#
#450000
b1001 !
14
0&
0/
0#
#500000
b1011 !
b1010 !
04
13
1&
#550000
b1011 !
14
0&
#600000
b1111 !
b1101 !
b1100 !
04
03
12
1&
#650000
b1101 !
14
0&
#700000
b1111 !
b1110 !
04
13
1&
#750000
b1111 !
14
0&
