Digital Systems/VHDL for Combinatorial Circuits and Storage/decodmodified/simulation/qsim/decodmodified.msim.vcd
$comment
	File created using the following command:
		vcd file decodmodified.msim.vcd -direction
$end
$date
	Fri Nov 06 05:40:38 2020
$end
$version
	ModelSim Version 10.1d
$end
$timescale
	1ps
$end
$scope module decodmodified_vlg_vec_tst $end
$var reg 1 ! En $end
$var reg 3 " w [2:0] $end
$var wire 1 # y [0] $end
$var wire 1 $ y [1] $end
$var wire 1 % y [2] $end
$var wire 1 & y [3] $end
$var wire 1 ' y [4] $end
$var wire 1 ( y [5] $end
$var wire 1 ) y [6] $end
$var wire 1 * y [7] $end
$var wire 1 + sampler $end
$scope module i1 $end
$var wire 1 , gnd $end
$var wire 1 - vcc $end
$var wire 1 . unknown $end
$var tri1 1 / devclrn $end
$var tri1 1 0 devpor $end
$var tri1 1 1 devoe $end
$var wire 1 2 En~combout $end
$var wire 1 3 dec1|Mux3~0_combout $end
$var wire 1 4 dec1|Mux2~0_combout $end
$var wire 1 5 dec1|Mux1~0_combout $end
$var wire 1 6 dec1|Mux0~0_combout $end
$var wire 1 7 dec0|Mux3~0_combout $end
$var wire 1 8 dec0|Mux2~0_combout $end
$var wire 1 9 dec0|Mux1~0_combout $end
$var wire 1 : dec0|Mux0~0_combout $end
$var wire 1 ; w~combout [2] $end
$var wire 1 < w~combout [1] $end
$var wire 1 = w~combout [0] $end
$upscope $end
$upscope $end
$enddefinitions $end
#0
$dumpvars
1!
b0 "
0*
0)
0(
0'
0&
0%
0$
1#
x+
0,
1-
x.
1/
10
11
12
03
04
05
06
07
08
09
1:
0=
0<
0;
$end
#10000
b1 "
1=
0+
0:
19
0#
1$
#20000
b11 "
b10 "
0=
1<
1+
09
18
0$
1%
#30000
b11 "
1=
0+
08
17
0%
1&
#40000
b111 "
b101 "
b100 "
0=
0<
1;
1+
07
16
0&
1'
#50000
b101 "
1=
0+
06
15
0'
1(
#60000
b111 "
b110 "
0=
1<
1+
05
14
0(
1)
#70000
b111 "
1=
0+
04
13
0)
1*
#80000
b11 "
b1 "
b0 "
0=
0<
0;
1+
1:
03
1#
0*
#90000
0!
b1 "
02
1=
0+
0:
0#
#100000
b11 "
b10 "
0=
1<
1+
#110000
b11 "
1=
0+
