Digital Systems/VHDL for Combinatorial Circuits and Storage/johns/simulation/qsim/johns.msim.vcd
$comment
	File created using the following command:
		vcd file johns.msim.vcd -direction
$end
$date
	Fri Nov 06 09:13:25 2020
$end
$version
	ModelSim Version 10.1d
$end
$timescale
	1ps
$end
$scope module johns_vlg_vec_tst $end
$var reg 1 ! Clkn $end
$var reg 1 " Clrn $end
$var reg 1 # E $end
$var wire 1 $ Q [0] $end
$var wire 1 % Q [1] $end
$var wire 1 & Q [2] $end
$var wire 1 ' STUDENT_ID [3] $end
$var wire 1 ( STUDENT_ID [2] $end
$var wire 1 ) STUDENT_ID [1] $end
$var wire 1 * STUDENT_ID [0] $end
$var wire 1 + sampler $end
$scope module i1 $end
$var wire 1 , gnd $end
$var wire 1 - vcc $end
$var wire 1 . unknown $end
$var tri1 1 / devclrn $end
$var tri1 1 0 devpor $end
$var tri1 1 1 devoe $end
$var wire 1 2 Clkn~combout $end
$var wire 1 3 Clkn~clkctrl_outclk $end
$var wire 1 4 Qreg[0]~0_combout $end
$var wire 1 5 Clrn~combout $end
$var wire 1 6 Clrn~clkctrl_outclk $end
$var wire 1 7 E~combout $end
$var wire 1 8 Qreg[1]~feeder_combout $end
$var wire 1 9 Qreg[2]~feeder_combout $end
$var wire 1 : Mux2~0_combout $end
$var wire 1 ; Mux1~0_combout $end
$var wire 1 < Mux0~0_combout $end
$var wire 1 = Qreg [0] $end
$var wire 1 > Qreg [1] $end
$var wire 1 ? Qreg [2] $end
$upscope $end
$upscope $end
$enddefinitions $end
#0
$dumpvars
0!
0"
1#
0&
0%
0$
1*
0)
0(
1'
x+
0,
1-
x.
1/
10
11
02
03
14
05
06
17
08
09
0:
0;
0<
0?
0>
0=
$end
#40000
1!
12
13
0+
#80000
0!
02
03
1+
#100000
1"
15
16
0+
#120000
1!
12
13
1+
#160000
0!
02
03
0+
1=
1<
1;
18
1$
1(
0'
#200000
1!
12
13
1+
#240000
0!
02
03
0+
1>
0;
1:
19
1%
0(
1)
#280000
1!
12
13
1+
#320000
0!
02
03
0+
1?
0:
04
1&
0*
0)
#360000
1!
12
13
1+
#400000
0!
02
03
0+
0=
08
0$
#440000
1!
12
13
1+
#480000
0!
02
03
0+
0>
1;
09
0%
1(
#520000
1!
12
13
1+
#560000
0!
02
03
0+
0?
0<
0;
14
0&
1*
0(
1'
#600000
1!
12
13
1+
#640000
0!
02
03
0+
1=
1<
1;
18
1$
1(
0'
#680000
1!
12
13
1+
#720000
0!
02
03
0+
1>
0;
1:
19
1%
0(
1)
#760000
1!
12
13
1+
#800000
0!
02
03
0+
1?
0:
04
1&
0*
0)
#840000
1!
12
13
1+
#880000
0!
02
03
0+
0=
08
0$
#920000
1!
12
13
1+
#960000
0!
02
03
0+
0>
1;
09
0%
1(
