Digital Systems/Implementing a Customized State Machine/simulation/qsim/lab6.msim.vcd
$comment
	File created using the following command:
		vcd file lab6.msim.vcd -direction
$end
$date
	Fri Nov 13 08:49:03 2020
$end
$version
	ModelSim Version 10.1d
$end
$timescale
	1ps
$end
$scope module lab6_vlg_vec_tst $end
$var reg 1 ! Clock $end
$var reg 1 " data_in $end
$var reg 1 # Resetn $end
$var wire 1 $ current_state [3] $end
$var wire 1 % current_state [2] $end
$var wire 1 & current_state [1] $end
$var wire 1 ' current_state [0] $end
$var wire 1 ( student_id [3] $end
$var wire 1 ) student_id [2] $end
$var wire 1 * student_id [1] $end
$var wire 1 + student_id [0] $end
$var wire 1 , sampler $end
$scope module i1 $end
$var wire 1 - gnd $end
$var wire 1 . vcc $end
$var wire 1 / unknown $end
$var tri1 1 0 devclrn $end
$var tri1 1 1 devpor $end
$var tri1 1 2 devoe $end
$var wire 1 3 data_in~combout $end
$var wire 1 4 Clock~combout $end
$var wire 1 5 Clock~clkctrl_outclk $end
$var wire 1 6 y.s0~feeder_combout $end
$var wire 1 7 Resetn~combout $end
$var wire 1 8 Resetn~clkctrl_outclk $end
$var wire 1 9 y.s0~regout $end
$var wire 1 : y~14_combout $end
$var wire 1 ; y.s4~regout $end
$var wire 1 < y~13_combout $end
$var wire 1 = y.s5~regout $end
$var wire 1 > y.s7~0_combout $end
$var wire 1 ? y.s7~regout $end
$var wire 1 @ y~15_combout $end
$var wire 1 A y.s1~regout $end
$var wire 1 B Selector0~0_combout $end
$var wire 1 C y.s2~regout $end
$var wire 1 D Selector1~0_combout $end
$var wire 1 E y.s3~regout $end
$var wire 1 F WideOr4~combout $end
$var wire 1 G student_id~0_combout $end
$var wire 1 H Selector2~0_combout $end
$var wire 1 I Selector2~1_combout $end
$var wire 1 J y.s6~regout $end
$var wire 1 K WideOr7~0_combout $end
$var wire 1 L WideOr6~combout $end
$var wire 1 M WideOr5~0_combout $end
$upscope $end
$upscope $end
$enddefinitions $end
#0
$dumpvars
0!
0"
0#
0'
0&
0%
0$
1+
0*
1)
0(
x,
0-
1.
x/
10
11
12
03
04
05
16
07
08
09
1:
0;
0<
0=
0>
0?
0@
0A
0B
0C
0D
0E
1F
0G
0H
0I
0J
1K
1L
1M
$end
#25000
1!
14
15
0,
#50000
1#
1"
0!
17
13
04
05
18
1,
1@
0:
#75000
1!
14
15
0,
1A
19
1B
0K
1G
0F
0@
0+
1'
0)
#100000
0!
04
05
1,
#125000
1!
14
15
0,
1C
0A
1K
1H
0L
0B
1I
0'
1&
#150000
0"
0!
03
04
05
1,
0H
1D
0I
#175000
1!
14
15
0,
1E
0C
1F
0K
1(
1+
1'
#200000
0!
04
05
1,
#225000
1!
14
15
0,
#250000
1"
0!
13
04
05
1,
#275000
1!
14
15
0,
#300000
0"
0!
03
04
05
1,
#325000
1!
14
15
0,
#350000
0!
04
05
1,
#375000
1!
14
15
0,
#400000
0!
04
05
1,
#425000
1!
14
15
0,
#450000
0!
04
05
1,
#475000
1!
14
15
0,
#500000
0!
04
05
1,
#525000
1!
14
15
0,
#550000
0!
04
05
1,
#575000
1!
14
15
0,
#600000
0!
04
05
1,
#625000
1!
14
15
0,
#650000
0!
04
05
1,
#675000
1!
14
15
0,
#700000
0!
04
05
1,
#725000
1!
14
15
0,
#750000
0!
04
05
1,
#775000
1!
14
15
0,
#800000
0!
04
05
1,
#825000
1!
14
15
0,
#850000
0!
04
05
1,
#875000
1!
14
15
0,
#900000
0!
04
05
1,
#925000
1!
14
15
0,
#950000
0!
04
05
1,
#975000
1!
14
15
0,
